"Habitat","date","year","month","Sample_ID","density","survival","temperatureK","TypeOfSampling"
"Forest","2017-08",2017,8,"GA",11.0000030113587,0.696438,285.45,"Direct"
"Forest","2017-08",2017,8,"HA",11.0000030113587,0.696438,285.45,"Direct"
"Forest","2017-08",2017,8,"KA",11.0000030113587,0.696438,285.45,"Direct"
"Forest","2017-08",2017,8,"MA",11.0000030113587,0.696438,285.45,"Direct"
"Forest","2017-08",2017,8,"QA",11.0000030113587,0.696438,285.45,"Direct"
"Forest","2017-08",2017,8,"ZZ",11.0000030113587,0.696438,285.45,"Direct"
"Forest","2017-08",2017,8,"PA",11.0000030113587,0.696438,285.45,"Direct"
"Forest","2017-09",2017,9,"RA",16.5900304075952,0.8136487,282.55,"Direct"
"Forest","2017-09",2017,9,"SA",16.5900304075952,0.8136487,282.55,"Direct"
"Forest","2017-09",2017,9,"XA",16.5900304075952,0.8136487,282.55,"Direct"
"Forest","2017-09",2017,9,"ZA",16.5900304075952,0.8136487,282.55,"Direct"
"Forest","2017-09",2017,9,"WA",16.5900304075952,0.8136487,282.55,"Direct"
"Forest","2017-09",2017,9,"TA",16.5900304075952,0.8136487,282.55,"Direct"
"Forest","2018-01",2018,1,"WH",5.42857145480897,0.9104275,264.65,"Indirect"
"Forest","2018-01",2018,1,"AB",5.42857145480897,0.9104275,264.65,"Direct"
"Forest","2018-01",2018,1,"BB",5.42857145480897,0.9104275,264.65,"Direct"
"Forest","2018-01",2018,1,"CB",5.42857145480897,0.9104275,264.65,"Direct"
"Forest","2018-01",2018,1,"DB",5.42857145480897,0.9104275,264.65,"Direct"
"Forest","2018-01",2018,1,"GS",5.42857145480897,0.9104275,264.65,"Indirect"
"Forest","2018-01",2018,1,"HS",5.42857145480897,0.9104275,264.65,"Indirect"
"Forest","2018-01",2018,1,"KK",5.42857145480897,0.9104275,264.65,"Indirect"
"Forest","2018-01",2018,1,"KS",5.42857145480897,0.9104275,264.65,"Indirect"
"Forest","2018-01",2018,1,"NS",5.42857145480897,0.9104275,264.65,"Indirect"
"Forest","2018-01",2018,1,"PS",5.42857145480897,0.9104275,264.65,"Indirect"
"Forest","2018-01",2018,1,"RH",5.42857145480897,0.9104275,264.65,"Indirect"
"Forest","2018-01",2018,1,"SH",5.42857145480897,0.9104275,264.65,"Indirect"
"Forest","2018-01",2018,1,"TH",5.42857145480897,0.9104275,264.65,"Indirect"
"Forest","2018-01",2018,1,"XH",5.42857145480897,0.9104275,264.65,"Indirect"
"Forest","2018-01",2018,1,"ZH",5.42857145480897,0.9104275,264.65,"Indirect"
"Forest","2018-01",2018,1,"MS",5.42857145480897,0.9104275,264.65,"Indirect"
"Forest","2018-02",2018,2,"XB",5.41758244525235,0.863142776923077,264.05,"Indirect"
"Forest","2018-02",2018,2,"RB",5.40659343569574,0.815858053846154,264.05,"Indirect"
"Forest","2018-02",2018,2,"SB",5.39560442613912,0.768573330769231,264.05,"Indirect"
"Forest","2018-02",2018,2,"TB",5.38461541658251,0.721288607692308,264.05,"Indirect"
"Forest","2018-02",2018,2,"WB",5.37362640702589,0.674003884615385,264.05,"Indirect"
"Forest","2018-02",2018,2,"ZB",5.36263739746927,0.626719161538462,264.05,"Indirect"
"Forest","2018-03",2018,3,"DC",5.35164838791266,0.579434438461538,265.95,"Indirect"
"Forest","2018-03",2018,3,"EC",5.34065937835604,0.532149715384615,265.95,"Indirect"
"Forest","2018-03",2018,3,"AC",5.32967036879942,0.484864992307692,265.95,"Indirect"
"Forest","2018-03",2018,3,"BC",5.31868135924281,0.437580269230769,265.95,"Indirect"
"Forest","2018-03",2018,3,"FC",5.30769234968619,0.390295546153846,265.95,"Indirect"
"Forest","2018-03",2018,3,"CC",5.29670334012958,0.343010823076923,265.95,"Indirect"
"Forest","2018-05",2018,5,"QC",5.28571433057296,0.2957261,286.65,"Direct"
"Forest","2018-05",2018,5,"RC",5.28571433057296,0.2957261,286.65,"Direct"
"Forest","2018-05",2018,5,"SC",5.28571433057296,0.2957261,286.65,"Direct"
"Forest","2018-05",2018,5,"WC",5.28571433057296,0.2957261,286.65,"Direct"
"Forest","2018-05",2018,5,"XC",5.28571433057296,0.2957261,286.65,"Direct"
"Forest","2018-05",2018,5,"TC",5.28571433057296,0.2957261,286.65,"Direct"
"Forest","2018-06",2018,6,"CE",4.85714287885865,0.3113776,287.85,"Direct"
"Forest","2018-06",2018,6,"FE",4.85714287885865,0.3113776,287.85,"Direct"
"Forest","2018-06",2018,6,"BE",4.85714287885865,0.3113776,287.85,"Direct"
"Forest","2018-06",2018,6,"DE",4.85714287885865,0.3113776,287.85,"Direct"
"Forest","2018-06",2018,6,"EE",4.85714287885865,0.3113776,287.85,"Direct"
"Forest","2018-06",2018,6,"GE",4.85714287885865,0.3113776,287.85,"Indirect"
"Forest","2018-06",2018,6,"AE",4.85714287885865,0.3113776,287.85,"Direct"
"Forest","2018-07",2018,7,"HE",4.14285716558308,0.4093025,292.25,"Direct"
"Forest","2018-07",2018,7,"KE",4.14285716558308,0.4093025,292.25,"Direct"
"Forest","2018-07",2018,7,"ME",4.14285716558308,0.4093025,292.25,"Direct"
"Forest","2018-07",2018,7,"NE",4.14285716558308,0.4093025,292.25,"Direct"
"Forest","2018-07",2018,7,"PE",4.14285716558308,0.4093025,292.25,"Direct"
"Forest","2018-07",2018,7,"QE",4.14285716558308,0.4093025,292.25,"Direct"
"Forest","2018-08",2018,8,"GF",7.42857176031782,0.3665495,286.45,"Direct"
"Forest","2018-08",2018,8,"HF",7.42857176031782,0.3665495,286.45,"Direct"
"Forest","2018-08",2018,8,"KF",7.42857176031782,0.3665495,286.45,"Direct"
"Forest","2018-08",2018,8,"MF",7.42857176031782,0.3665495,286.45,"Direct"
"Forest","2018-08",2018,8,"NF",7.42857176031782,0.3665495,286.45,"Direct"
"Forest","2018-08",2018,8,"PF",7.42857176031782,0.3665495,286.45,"Direct"
"Forest","2018-09",2018,9,"GG",6.00000004224812,0.6415801,282.55,"Direct"
"Forest","2018-09",2018,9,"KG",6.00000004224812,0.6415801,282.55,"Direct"
"Forest","2018-09",2018,9,"HG",6.00000004224812,0.6415801,282.55,"Direct"
"Forest","2018-09",2018,9,"MG",6.00000004224812,0.6415801,282.55,"Direct"
"Forest","2018-09",2018,9,"NG",6.00000004224812,0.6415801,282.55,"Direct"
"Forest","2018-09",2018,9,"PG",6.00000004224812,0.6415801,282.55,"Direct"
"Forest","2018-10",2018,10,"NH",2.57142859008199,0.4534038,276.75,"Direct"
"Forest","2018-10",2018,10,"FH",2.57142859008199,0.4534038,276.75,"Direct"
"Forest","2018-10",2018,10,"GH",2.57142859008199,0.4534038,276.75,"Direct"
"Forest","2018-10",2018,10,"HH",2.57142859008199,0.4534038,276.75,"Direct"
"Forest","2018-10",2018,10,"KH",2.57142859008199,0.4534038,276.75,"Direct"
"Forest","2018-10",2018,10,"MH",2.57142859008199,0.4534038,276.75,"Direct"
"Forest","2018-10",2018,10,"SK",2.57142859008199,0.4534038,276.75,"Indirect"
"Forest","2018-10",2018,10,"NK",2.57142859008199,0.4534038,276.75,"Indirect"
"Forest","2018-10",2018,10,"QK",2.57142859008199,0.4534038,276.75,"Indirect"
"Forest","2018-10",2018,10,"TK",2.57142859008199,0.4534038,276.75,"Indirect"
"Forest","2018-10",2018,10,"PK",2.57142859008199,0.4534038,276.75,"Indirect"
"Forest","2018-10",2018,10,"RK",2.57142859008199,0.4534038,276.75,"Indirect"
"Forest","2018-11",2018,11,"NM",1.8571428753197,0.2035178,273.05,"Indirect"
"Forest","2018-11",2018,11,"PM",1.8571428753197,0.2035178,273.05,"Indirect"
"Forest","2018-11",2018,11,"QM",1.8571428753197,0.2035178,273.05,"Indirect"
"Forest","2018-11",2018,11,"RM",1.8571428753197,0.2035178,273.05,"Indirect"
"Forest","2018-11",2018,11,"SM",1.8571428753197,0.2035178,273.05,"Indirect"
"Forest","2018-12",2018,12,"AN",0.714285733915403,0.536261,266.95,"Indirect"
"Forest","2018-12",2018,12,"CN",0.714285733915403,0.536261,266.95,"Indirect"
"Forest","2018-12",2018,12,"FN",0.714285733915403,0.536261,266.95,"Indirect"
"Forest","2018-12",2018,12,"HN",0.714285733915403,0.536261,266.95,"Indirect"
"Forest","2018-12",2018,12,"KN",0.714285733915403,0.536261,266.95,"Indirect"
"Forest","2018-12",2018,12,"MN",0.714285733915403,0.536261,266.95,"Indirect"
"Forest","2018-12",2018,12,"DN",0.714285733915403,0.536261,266.95,"Indirect"
"Forest","2018-12",2018,12,"GN",0.714285733915403,0.536261,266.95,"Indirect"
"Forest","2018-12",2018,12,"MM",0.714285733915403,0.536261,266.95,"Direct"
"Forest","2019-01",2019,1,"ZM",0.571428591466216,0.3381894,264.05,"Direct"
"Forest","2019-01",2019,1,"QN",0.571428591466216,0.3381894,264.05,"Indirect"
"Forest","2019-01",2019,1,"SN",0.571428591466216,0.3381894,264.05,"Indirect"
"Forest","2019-01",2019,1,"WN",0.571428591466216,0.3381894,264.05,"Indirect"
"Forest","2019-01",2019,1,"PN",0.571428591466216,0.3381894,264.05,"Indirect"
"Forest","2019-01",2019,1,"RN",0.571428591466216,0.3381894,264.05,"Indirect"
"Forest","2019-01",2019,1,"TN",0.571428591466216,0.3381894,264.05,"Indirect"
"Forest","2019-03",2019,3,"AP",0.857142876485734,0.5126095,271.25,"Indirect"
"Forest","2019-03",2019,3,"BP",0.857142876485734,0.5126095,271.25,"Indirect"
"Forest","2019-03",2019,3,"CP",0.857142876485734,0.5126095,271.25,"Indirect"
"Forest","2019-03",2019,3,"DP",0.857142876485734,0.5126095,271.25,"Indirect"
"Forest","2019-03",2019,3,"XN",0.857142876485734,0.5126095,271.25,"Indirect"
"Forest","2019-04",2019,4,"GP",1.28571430431724,0.6056492,276.75,"Indirect"
"Forest","2019-04",2019,4,"HP",1.28571430431724,0.6056492,276.75,"Indirect"
"Forest","2019-05",2019,5,"EP",2.14285716125499,0.7564624,280.65,"Direct"
"Forest","2019-05",2019,5,"SP",2.14285716125499,0.7564624,280.65,"Indirect"
"Forest","2019-05",2019,5,"TP",2.14285716125499,0.7564624,280.65,"Indirect"
"Forest","2019-06",2019,6,"PP",2.28571430393775,0.4537388,287.35,"Direct"
"Forest","2019-06",2019,6,"QP",2.28571430393775,0.4537388,287.35,"Direct"
"Forest","2019-06",2019,6,"RP",2.28571430393775,0.4537388,287.35,"Direct"
"Forest","2019-07",2019,7,"AQ",2.71428573283853,0.5778234,288.95,"Direct"
"Forest","2019-07",2019,7,"CQ",2.71428573283853,0.5778234,288.95,"Direct"
"Forest","2019-07",2019,7,"XP",2.71428573283853,0.5778234,288.95,"Direct"
"Forest","2019-07",2019,7,"ZP",2.71428573283853,0.5778234,288.95,"Direct"
"Forest","2019-07",2019,7,"BQ",2.71428573283853,0.5778234,288.95,"Direct"
"Forest","2019-07",2019,7,"DQ",2.71428573283853,0.5778234,288.95,"Direct"
"Forest","2019-08",2019,8,"KQ",2.42857144697484,0.4200209,287.85,"Direct"
"Forest","2019-08",2019,8,"MQ",2.42857144697484,0.4200209,287.85,"Direct"
"Forest","2019-08",2019,8,"NQ",2.42857144697484,0.4200209,287.85,"Direct"
"Forest","2019-08",2019,8,"HQ",2.42857144697484,0.4200209,287.85,"Direct"
"Forest","2019-08",2019,8,"GQ",2.42857144697484,0.4200209,287.85,"Direct"
"Forest","2019-08",2019,8,"FQ",2.42857144697484,0.4200209,287.85,"Direct"
"Ditch","2017-08",2017,8,"GA",11.0000055752896,0.6810118,285.45,"Direct"
"Ditch","2017-08",2017,8,"HA",11.0000055752896,0.6810118,285.45,"Direct"
"Ditch","2017-08",2017,8,"KA",11.0000055752896,0.6810118,285.45,"Direct"
"Ditch","2017-08",2017,8,"MA",11.0000055752896,0.6810118,285.45,"Direct"
"Ditch","2017-08",2017,8,"QA",11.0000055752896,0.6810118,285.45,"Direct"
"Ditch","2017-08",2017,8,"ZZ",11.0000055752896,0.6810118,285.45,"Direct"
"Ditch","2017-08",2017,8,"PA",11.0000055752896,0.6810118,285.45,"Direct"
"Ditch","2017-09",2017,9,"RA",16.5778699512996,0.682723914285714,282.55,"Direct"
"Ditch","2017-09",2017,9,"SA",16.5778699512996,0.684436028571428,282.55,"Direct"
"Ditch","2017-09",2017,9,"XA",16.5778699512996,0.686148142857143,282.55,"Direct"
"Ditch","2017-09",2017,9,"ZA",16.5778699512996,0.687860257142857,282.55,"Direct"
"Ditch","2017-09",2017,9,"WA",16.5778699512996,0.689572371428571,282.55,"Direct"
"Ditch","2017-09",2017,9,"TA",16.5778699512996,0.691284485714286,282.55,"Direct"
"Ditch","2018-01",2018,1,"WH",5.42857148445266,0.5316419,264.65,"Indirect"
"Ditch","2018-01",2018,1,"AB",5.42857148445266,0.5316419,264.65,"Direct"
"Ditch","2018-01",2018,1,"BB",5.42857148445266,0.5316419,264.65,"Direct"
"Ditch","2018-01",2018,1,"CB",5.42857148445266,0.5316419,264.65,"Direct"
"Ditch","2018-01",2018,1,"DB",5.42857148445266,0.5316419,264.65,"Direct"
"Ditch","2018-01",2018,1,"GS",5.42857148445266,0.5316419,264.65,"Indirect"
"Ditch","2018-01",2018,1,"HS",5.42857148445266,0.5316419,264.65,"Indirect"
"Ditch","2018-01",2018,1,"KK",5.42857148445266,0.5316419,264.65,"Indirect"
"Ditch","2018-01",2018,1,"KS",5.42857148445266,0.5316419,264.65,"Indirect"
"Ditch","2018-01",2018,1,"NS",5.42857148445266,0.5316419,264.65,"Indirect"
"Ditch","2018-01",2018,1,"PS",5.42857148445266,0.5316419,264.65,"Indirect"
"Ditch","2018-01",2018,1,"RH",5.42857148445266,0.5316419,264.65,"Indirect"
"Ditch","2018-01",2018,1,"SH",5.42857148445266,0.5316419,264.65,"Indirect"
"Ditch","2018-01",2018,1,"TH",5.42857148445266,0.5316419,264.65,"Indirect"
"Ditch","2018-01",2018,1,"XH",5.42857148445266,0.5316419,264.65,"Indirect"
"Ditch","2018-01",2018,1,"ZH",5.42857148445266,0.5316419,264.65,"Indirect"
"Ditch","2018-01",2018,1,"MS",5.42857148445266,0.5316419,264.65,"Indirect"
"Ditch","2018-02",2018,2,"XB",5.41758247740681,0.499367746153846,264.05,"Indirect"
"Ditch","2018-02",2018,2,"RB",5.40659347036096,0.467093592307692,264.05,"Indirect"
"Ditch","2018-02",2018,2,"SB",5.39560446331511,0.434819438461538,264.05,"Indirect"
"Ditch","2018-02",2018,2,"TB",5.38461545626925,0.402545284615385,264.05,"Indirect"
"Ditch","2018-02",2018,2,"WB",5.3736264492234,0.370271130769231,264.05,"Indirect"
"Ditch","2018-02",2018,2,"ZB",5.36263744217755,0.337996976923077,264.05,"Indirect"
"Ditch","2018-03",2018,3,"DC",5.3516484351317,0.305722823076923,265.95,"Indirect"
"Ditch","2018-03",2018,3,"EC",5.34065942808585,0.273448669230769,265.95,"Indirect"
"Ditch","2018-03",2018,3,"AC",5.32967042104,0.241174515384615,265.95,"Indirect"
"Ditch","2018-03",2018,3,"BC",5.31868141399414,0.208900361538462,265.95,"Indirect"
"Ditch","2018-03",2018,3,"FC",5.30769240694829,0.176626207692308,265.95,"Indirect"
"Ditch","2018-03",2018,3,"CC",5.29670339990244,0.144352053846154,265.95,"Indirect"
"Ditch","2018-05",2018,5,"QC",5.28571439285659,0.1120779,286.65,"Direct"
"Ditch","2018-05",2018,5,"RC",5.28571439285659,0.1120779,286.65,"Direct"
"Ditch","2018-05",2018,5,"SC",5.28571439285659,0.1120779,286.65,"Direct"
"Ditch","2018-05",2018,5,"WC",5.28571439285659,0.1120779,286.65,"Direct"
"Ditch","2018-05",2018,5,"XC",5.28571439285659,0.1120779,286.65,"Direct"
"Ditch","2018-05",2018,5,"TC",5.28571439285659,0.1120779,286.65,"Direct"
"Ditch","2018-06",2018,6,"CE",4.85714290008534,0.1567043,287.85,"Direct"
"Ditch","2018-06",2018,6,"FE",4.85714290008534,0.1567043,287.85,"Direct"
"Ditch","2018-06",2018,6,"BE",4.85714290008534,0.1567043,287.85,"Direct"
"Ditch","2018-06",2018,6,"DE",4.85714290008534,0.1567043,287.85,"Direct"
"Ditch","2018-06",2018,6,"EE",4.85714290008534,0.1567043,287.85,"Direct"
"Ditch","2018-06",2018,6,"GE",4.85714290008534,0.1567043,287.85,"Indirect"
"Ditch","2018-06",2018,6,"AE",4.85714290008534,0.1567043,287.85,"Direct"
"Ditch","2018-07",2018,7,"HE",4.14285718981563,0.5660743,292.25,"Direct"
"Ditch","2018-07",2018,7,"KE",4.14285718981563,0.5660743,292.25,"Direct"
"Ditch","2018-07",2018,7,"ME",4.14285718981563,0.5660743,292.25,"Direct"
"Ditch","2018-07",2018,7,"NE",4.14285718981563,0.5660743,292.25,"Direct"
"Ditch","2018-07",2018,7,"PE",4.14285718981563,0.5660743,292.25,"Direct"
"Ditch","2018-07",2018,7,"QE",4.14285718981563,0.5660743,292.25,"Direct"
"Ditch","2018-08",2018,8,"GF",7.42857241166796,0.1495558,286.45,"Direct"
"Ditch","2018-08",2018,8,"HF",7.42857241166796,0.1495558,286.45,"Direct"
"Ditch","2018-08",2018,8,"KF",7.42857241166796,0.1495558,286.45,"Direct"
"Ditch","2018-08",2018,8,"MF",7.42857241166796,0.1495558,286.45,"Direct"
"Ditch","2018-08",2018,8,"NF",7.42857241166796,0.1495558,286.45,"Direct"
"Ditch","2018-08",2018,8,"PF",7.42857241166796,0.1495558,286.45,"Direct"
"Ditch","2018-09",2018,9,"GG",6.00000009095193,NA,282.55,"Direct"
"Ditch","2018-09",2018,9,"KG",6.00000009095193,NA,282.55,"Direct"
"Ditch","2018-09",2018,9,"HG",6.00000009095193,NA,282.55,"Direct"
"Ditch","2018-09",2018,9,"MG",6.00000009095193,NA,282.55,"Direct"
"Ditch","2018-09",2018,9,"NG",6.00000009095193,NA,282.55,"Direct"
"Ditch","2018-09",2018,9,"PG",6.00000009095193,NA,282.55,"Direct"
"Ditch","2018-10",2018,10,"NH",2.57142860427374,NA,276.75,"Direct"
"Ditch","2018-10",2018,10,"FH",2.57142860427374,NA,276.75,"Direct"
"Ditch","2018-10",2018,10,"GH",2.57142860427374,NA,276.75,"Direct"
"Ditch","2018-10",2018,10,"HH",2.57142860427374,NA,276.75,"Direct"
"Ditch","2018-10",2018,10,"KH",2.57142860427374,NA,276.75,"Direct"
"Ditch","2018-10",2018,10,"MH",2.57142860427374,NA,276.75,"Direct"
"Ditch","2018-10",2018,10,"SK",2.57142860427374,NA,276.75,"Indirect"
"Ditch","2018-10",2018,10,"NK",2.57142860427374,NA,276.75,"Indirect"
"Ditch","2018-10",2018,10,"QK",2.57142860427374,NA,276.75,"Indirect"
"Ditch","2018-10",2018,10,"TK",2.57142860427374,NA,276.75,"Indirect"
"Ditch","2018-10",2018,10,"PK",2.57142860427374,NA,276.75,"Indirect"
"Ditch","2018-10",2018,10,"RK",2.57142860427374,NA,276.75,"Indirect"
"Ditch","2018-11",2018,11,"NM",1.8571428863454,NA,273.05,"Indirect"
"Ditch","2018-11",2018,11,"PM",1.8571428863454,NA,273.05,"Indirect"
"Ditch","2018-11",2018,11,"QM",1.8571428863454,NA,273.05,"Indirect"
"Ditch","2018-11",2018,11,"RM",1.8571428863454,NA,273.05,"Indirect"
"Ditch","2018-11",2018,11,"SM",1.8571428863454,NA,273.05,"Indirect"
"Ditch","2018-12",2018,12,"AN",0.714285738509184,NA,266.95,"Indirect"
"Ditch","2018-12",2018,12,"CN",0.714285738509184,NA,266.95,"Indirect"
"Ditch","2018-12",2018,12,"FN",0.714285738509184,NA,266.95,"Indirect"
"Ditch","2018-12",2018,12,"HN",0.714285738509184,NA,266.95,"Indirect"
"Ditch","2018-12",2018,12,"KN",0.714285738509184,NA,266.95,"Indirect"
"Ditch","2018-12",2018,12,"MN",0.714285738509184,NA,266.95,"Indirect"
"Ditch","2018-12",2018,12,"DN",0.714285738509184,NA,266.95,"Indirect"
"Ditch","2018-12",2018,12,"GN",0.714285738509184,NA,266.95,"Indirect"
"Ditch","2018-12",2018,12,"MM",0.714285738509184,NA,266.95,"Direct"
"Ditch","2019-01",2019,1,"ZM",0.571428594675435,NA,264.05,"Direct"
"Ditch","2019-01",2019,1,"QN",0.571428594675435,NA,264.05,"Indirect"
"Ditch","2019-01",2019,1,"SN",0.571428594675435,NA,264.05,"Indirect"
"Ditch","2019-01",2019,1,"WN",0.571428594675435,NA,264.05,"Indirect"
"Ditch","2019-01",2019,1,"PN",0.571428594675435,NA,264.05,"Indirect"
"Ditch","2019-01",2019,1,"RN",0.571428594675435,NA,264.05,"Indirect"
"Ditch","2019-01",2019,1,"TN",0.571428594675435,NA,264.05,"Indirect"
"Ditch","2019-03",2019,3,"AP",0.857142881554365,NA,271.25,"Indirect"
"Ditch","2019-03",2019,3,"BP",0.857142881554365,NA,271.25,"Indirect"
"Ditch","2019-03",2019,3,"CP",0.857142881554365,NA,271.25,"Indirect"
"Ditch","2019-03",2019,3,"DP",0.857142881554365,NA,271.25,"Indirect"
"Ditch","2019-03",2019,3,"XN",0.857142881554365,NA,271.25,"Indirect"
"Ditch","2019-04",2019,4,"GP",1.14285716803248,NA,276.75,"Indirect"
"Ditch","2019-04",2019,4,"HP",1.14285716803248,NA,276.75,"Indirect"
"Ditch","2019-05",2019,5,"EP",2.14285717318908,NA,280.65,"Direct"
"Ditch","2019-05",2019,5,"SP",2.14285717318908,NA,280.65,"Indirect"
"Ditch","2019-05",2019,5,"TP",2.14285717318908,NA,280.65,"Indirect"
"Ditch","2019-06",2019,6,"PP",2.28571431555153,NA,287.35,"Direct"
"Ditch","2019-06",2019,6,"QP",2.28571431555153,NA,287.35,"Direct"
"Ditch","2019-06",2019,6,"RP",2.28571431555153,NA,287.35,"Direct"
"Ditch","2019-07",2019,7,"AQ",2.71428574593311,NA,288.95,"Direct"
"Ditch","2019-07",2019,7,"CQ",2.71428574593311,NA,288.95,"Direct"
"Ditch","2019-07",2019,7,"XP",2.71428574593311,NA,288.95,"Direct"
"Ditch","2019-07",2019,7,"ZP",2.71428574593311,NA,288.95,"Direct"
"Ditch","2019-07",2019,7,"BQ",2.71428574593311,NA,288.95,"Direct"
"Ditch","2019-07",2019,7,"DQ",2.71428574593311,NA,288.95,"Direct"
"Ditch","2019-08",2019,8,"KQ",2.28571431380516,NA,287.85,"Direct"
"Ditch","2019-08",2019,8,"MQ",2.28571431380516,NA,287.85,"Direct"
"Ditch","2019-08",2019,8,"NQ",2.28571431380516,NA,287.85,"Direct"
"Ditch","2019-08",2019,8,"HQ",2.28571431380516,NA,287.85,"Direct"
"Ditch","2019-08",2019,8,"GQ",2.28571431380516,NA,287.85,"Direct"
"Ditch","2019-08",2019,8,"FQ",2.28571431380516,NA,287.85,"Direct"
