"Sample_ID","TypeOfSampling","Habitat","date","Parmeliaceae"
"DC","Indirect","Forest","2018-03",1
"GA","Direct","Forest","2017-08",1
"RH","Indirect","Forest","2018-01",1
"SB","Indirect","Forest","2018-02",1
"SH","Indirect","Forest","2018-01",1
"XH","Indirect","Forest","2018-01",1
"ZH","Indirect","Forest","2018-01",1
