"","sample","sample_id","replicate","date","habitat","species","swipe","exclude","lab","animal","is_sample","sample_type","dateNew","sample.1","id"
"AA.ditch",NA,"AA",NA,"2017-08","ditch","tundraVole","NA","TRUE","NA","tundraVole",TRUE,"sample","2017-08","AA.ditch","AA.ditch"
"AB.forest",NA,"AB",NA,"2018-01","forest","bankVole","NA","TRUE","NA","bankVole",TRUE,"sample","2018-01","AB.forest","AB.forest"
"AC.forest",NA,"AC",NA,"2018-03","forest","bankVole","NA","TRUE","NA","bankVole",TRUE,"sample","2018-03","AC.forest","AC.forest"
"AD.ditch",NA,"AD",NA,"2018-05","ditch","tundraVole","NA","TRUE","NA","tundraVole",TRUE,"sample","2018-05","AD.ditch","AD.ditch"
"AE.forest",NA,"AE",NA,"2018-06","forest","bankVole","NA","TRUE","NA","bankVole",TRUE,"sample","2018-06","AE.forest","AE.forest"
"AF.ditch",NA,"AF",NA,"2018-06","ditch","tundraVole","NA","TRUE","NA","tundraVole",TRUE,"sample","2018-06","AF.ditch","AF.ditch"
"AG.ditch",NA,"AG",NA,"2018-07","ditch","tundraVole","NA","TRUE","NA","tundraVole",TRUE,"sample","2018-07","AG.ditch","AG.ditch"
"AK.ditch",NA,"AK",NA,"2018-01","ditch","tundraVole","NA","TRUE","NA","tundraVole",TRUE,"sample","2018-01","AK.ditch","AK.ditch"
"AN.forest",NA,"AN",NA,"2018-12","forest","bankVole","faeces","TRUE","NA","bankVole",TRUE,"sample","2018-12","AN.forest","AN.forest"
"AP.forest",NA,"AP",NA,"2019-03","forest","bankVole","NA","TRUE","NA","bankVole",TRUE,"sample","2019-03","AP.forest","AP.forest"
"AQ.forest",NA,"AQ",NA,"2019-07","forest","bankVole","NA","TRUE","NA","bankVole",TRUE,"sample","2019-07","AQ.forest","AQ.forest"
"BA.ditch",NA,"BA",NA,"2017-08","ditch","tundraVole","NA","TRUE","NA","tundraVole",TRUE,"sample","2017-08","BA.ditch","BA.ditch"
"BB.forest",NA,"BB",NA,"2018-01","forest","bankVole","NA","TRUE","NA","bankVole",TRUE,"sample","2018-01","BB.forest","BB.forest"
"BC.forest",NA,"BC",NA,"2018-03","forest","bankVole","NA","TRUE","NA","bankVole",TRUE,"sample","2018-03","BC.forest","BC.forest"
"BD.ditch",NA,"BD",NA,"2018-06","ditch","tundraVole","NA","TRUE","NA","tundraVole",TRUE,"sample","2018-06","BD.ditch","BD.ditch"
"BE.forest",NA,"BE",NA,"2018-06","forest","bankVole","NA","TRUE","NA","bankVole",TRUE,"sample","2018-06","BE.forest","BE.forest"
"BF.ditch",NA,"BF",NA,"2018-07","ditch","tundraVole","NA","TRUE","NA","tundraVole",TRUE,"sample","2018-07","BF.ditch","BF.ditch"
"BG.ditch",NA,"BG",NA,"2018-07","ditch","tundraVole","NA","TRUE","NA","tundraVole",TRUE,"sample","2018-07","BG.ditch","BG.ditch"
"BH.ditch",NA,"BH",NA,"2018-08","ditch","tundraVole","NA","TRUE","NA","tundraVole",TRUE,"sample","2018-08","BH.ditch","BH.ditch"
"BP.forest",NA,"BP",NA,"2019-03","forest","bankVole","NA","TRUE","NA","bankVole",TRUE,"sample","2019-03","BP.forest","BP.forest"
"BQ.forest",NA,"BQ",NA,"2019-07","forest","bankVole","NA","TRUE","NA","bankVole",TRUE,"sample","2019-07","BQ.forest","BQ.forest"
"CA.ditch",NA,"CA",NA,"2017-08","ditch","tundraVole","NA","TRUE","NA","tundraVole",TRUE,"sample","2017-08","CA.ditch","CA.ditch"
"CB.forest",NA,"CB",NA,"2018-01","forest","bankVole","NA","TRUE","NA","bankVole",TRUE,"sample","2018-01","CB.forest","CB.forest"
"CC.forest",NA,"CC",NA,"2018-03","forest","bankVole","NA","TRUE","NA","bankVole",TRUE,"sample","2018-03","CC.forest","CC.forest"
"CD.ditch",NA,"CD",NA,"2018-06","ditch","tundraVole","NA","TRUE","NA","tundraVole",TRUE,"sample","2018-06","CD.ditch","CD.ditch"
"CE.forest",NA,"CE",NA,"2018-06","forest","bankVole","NA","TRUE","NA","bankVole",TRUE,"sample","2018-06","CE.forest","CE.forest"
"CF.ditch",NA,"CF",NA,"2018-07","ditch","tundraVole","NA","TRUE","NA","tundraVole",TRUE,"sample","2018-07","CF.ditch","CF.ditch"
"CG.ditch",NA,"CG",NA,"2018-07","ditch","tundraVole","NA","TRUE","NA","tundraVole",TRUE,"sample","2018-07","CG.ditch","CG.ditch"
"CH.ditch",NA,"CH",NA,"2018-09","ditch","tundraVole","NA","TRUE","NA","tundraVole",TRUE,"sample","2018-09","CH.ditch","CH.ditch"
"CK.ditch",NA,"CK",NA,"2018-01","ditch","tundraVole","NA","TRUE","NA","tundraVole",TRUE,"sample","2018-01","CK.ditch","CK.ditch"
"CN.forest",NA,"CN",NA,"2018-12","forest","bankVole","faeces","TRUE","NA","bankVole",TRUE,"sample","2018-12","CN.forest","CN.forest"
"CP.forest",NA,"CP",NA,"2019-03","forest","bankVole","NA","TRUE","NA","bankVole",TRUE,"sample","2019-03","CP.forest","CP.forest"
"CQ.forest",NA,"CQ",NA,"2019-07","forest","bankVole","NA","TRUE","NA","bankVole",TRUE,"sample","2019-07","CQ.forest","CQ.forest"
"DA.ditch",NA,"DA",NA,"2017-08","ditch","tundraVole","NA","TRUE","NA","tundraVole",TRUE,"sample","2017-08","DA.ditch","DA.ditch"
"DB.forest",NA,"DB",NA,"2018-01","forest","bankVole","NA","TRUE","NA","bankVole",TRUE,"sample","2018-01","DB.forest","DB.forest"
"DC.forest",NA,"DC",NA,"2018-03","forest","bankVole","NA","TRUE","NA","bankVole",TRUE,"sample","2018-03","DC.forest","DC.forest"
"DD.ditch",NA,"DD",NA,"2018-06","ditch","tundraVole","NA","TRUE","NA","tundraVole",TRUE,"sample","2018-06","DD.ditch","DD.ditch"
"DE.forest",NA,"DE",NA,"2018-06","forest","bankVole","NA","TRUE","NA","bankVole",TRUE,"sample","2018-06","DE.forest","DE.forest"
"DF.ditch",NA,"DF",NA,"2018-07","ditch","tundraVole","NA","TRUE","NA","tundraVole",TRUE,"sample","2018-07","DF.ditch","DF.ditch"
"DG.ditch",NA,"DG",NA,"2018-08","ditch","tundraVole","NA","TRUE","NA","tundraVole",TRUE,"sample","2018-08","DG.ditch","DG.ditch"
"DH.ditch",NA,"DH",NA,"2018-09","ditch","tundraVole","NA","TRUE","NA","tundraVole",TRUE,"sample","2018-09","DH.ditch","DH.ditch"
"DN.forest",NA,"DN",NA,"2018-12","forest","bankVole","NA","TRUE","NA","bankVole",TRUE,"sample","2018-12","DN.forest","DN.forest"
"DP.forest",NA,"DP",NA,"2019-03","forest","bankVole","NA","TRUE","NA","bankVole",TRUE,"sample","2019-03","DP.forest","DP.forest"
"DQ.forest",NA,"DQ",NA,"2019-07","forest","bankVole","NA","TRUE","NA","bankVole",TRUE,"sample","2019-07","DQ.forest","DQ.forest"
"EA.ditch",NA,"EA",NA,"2017-08","ditch","tundraVole","NA","TRUE","NA","tundraVole",TRUE,"sample","2017-08","EA.ditch","EA.ditch"
"EC.forest",NA,"EC",NA,"2018-03","forest","bankVole","NA","TRUE","NA","bankVole",TRUE,"sample","2018-03","EC.forest","EC.forest"
"ED.ditch",NA,"ED",NA,"2018-06","ditch","tundraVole","NA","TRUE","NA","tundraVole",TRUE,"sample","2018-06","ED.ditch","ED.ditch"
"EE.forest",NA,"EE",NA,"2018-06","forest","bankVole","NA","TRUE","NA","bankVole",TRUE,"sample","2018-06","EE.forest","EE.forest"
"EF.ditch",NA,"EF",NA,"2018-07","ditch","tundraVole","NA","TRUE","NA","tundraVole",TRUE,"sample","2018-07","EF.ditch","EF.ditch"
"EG.ditch",NA,"EG",NA,"2018-08","ditch","tundraVole","NA","TRUE","NA","tundraVole",TRUE,"sample","2018-08","EG.ditch","EG.ditch"
"EH.ditch",NA,"EH",NA,"2018-09","ditch","tundraVole","NA","TRUE","NA","tundraVole",TRUE,"sample","2018-09","EH.ditch","EH.ditch"
"EK.ditch",NA,"EK",NA,"2018-01","ditch","tundraVole","NA","TRUE","NA","tundraVole",TRUE,"sample","2018-01","EK.ditch","EK.ditch"
"EP.forest",NA,"EP",NA,"2019-05","forest","bankVole","NA","TRUE","NA","bankVole",TRUE,"sample","2019-05","EP.forest","EP.forest"
"EQ.ditch",NA,"EQ",NA,"2019-06","ditch","tundraVole","NA","TRUE","NA","tundraVole",TRUE,"sample","2019-06","EQ.ditch","EQ.ditch"
"FA.ditch",NA,"FA",NA,"2017-08","ditch","tundraVole","NA","TRUE","NA","tundraVole",TRUE,"sample","2017-08","FA.ditch","FA.ditch"
"FC.forest",NA,"FC",NA,"2018-03","forest","bankVole","NA","TRUE","NA","bankVole",TRUE,"sample","2018-03","FC.forest","FC.forest"
"FD.ditch",NA,"FD",NA,"2018-05","ditch","tundraVole","NA","TRUE","NA","tundraVole",TRUE,"sample","2018-05","FD.ditch","FD.ditch"
"FE.forest",NA,"FE",NA,"2018-06","forest","bankVole","NA","TRUE","NA","bankVole",TRUE,"sample","2018-06","FE.forest","FE.forest"
"FF.ditch",NA,"FF",NA,"2018-07","ditch","tundraVole","NA","TRUE","NA","tundraVole",TRUE,"sample","2018-07","FF.ditch","FF.ditch"
"FG.ditch",NA,"FG",NA,"2018-08","ditch","tundraVole","NA","TRUE","NA","tundraVole",TRUE,"sample","2018-08","FG.ditch","FG.ditch"
"FH.forest",NA,"FH",NA,"2018-10","forest","bankVole","NA","TRUE","NA","bankVole",TRUE,"sample","2018-10","FH.forest","FH.forest"
"FN.forest",NA,"FN",NA,"2018-12","forest","bankVole","NA","TRUE","NA","bankVole",TRUE,"sample","2018-12","FN.forest","FN.forest"
"FQ.forest",NA,"FQ",NA,"2019-08","forest","bankVole","NA","TRUE","NA","bankVole",TRUE,"sample","2019-08","FQ.forest","FQ.forest"
"GA.forest",NA,"GA",NA,"2017-08","forest","bankVole","NA","TRUE","NA","bankVole",TRUE,"sample","2017-08","GA.forest","GA.forest"
"GE.forest",NA,"GE",NA,"2018-06","forest","bankVole","NA","TRUE","NA","bankVole",TRUE,"sample","2018-06","GE.forest","GE.forest"
"GF.forest",NA,"GF",NA,"2018-08","forest","bankVole","NA","TRUE","NA","bankVole",TRUE,"sample","2018-08","GF.forest","GF.forest"
"GG.forest",NA,"GG",NA,"2018-09","forest","bankVole","NA","TRUE","NA","bankVole",TRUE,"sample","2018-09","GG.forest","GG.forest"
"GH.forest",NA,"GH",NA,"2018-10","forest","bankVole","NA","TRUE","NA","bankVole",TRUE,"sample","2018-10","GH.forest","GH.forest"
"GK.ditch",NA,"GK",NA,"2018-01","ditch","tundraVole","NA","TRUE","NA","tundraVole",TRUE,"sample","2018-01","GK.ditch","GK.ditch"
"GN.forest",NA,"GN",NA,"2018-12","forest","bankVole","NA","TRUE","NA","bankVole",TRUE,"sample","2018-12","GN.forest","GN.forest"
"GP.forest",NA,"GP",NA,"2019-04","forest","bankVole","NA","TRUE","NA","bankVole",TRUE,"sample","2019-04","GP.forest","GP.forest"
"GQ.forest",NA,"GQ",NA,"2019-08","forest","bankVole","NA","TRUE","NA","bankVole",TRUE,"sample","2019-08","GQ.forest","GQ.forest"
"GS.forest",NA,"GS",NA,"2018-01","forest","bankVole","NA","TRUE","NA","bankVole",TRUE,"sample","2018-01","GS.forest","GS.forest"
"HA.forest",NA,"HA",NA,"2017-08","forest","bankVole","NA","TRUE","NA","bankVole",TRUE,"sample","2017-08","HA.forest","HA.forest"
"HC.ditch",NA,"HC",NA,"2018-03","ditch","tundraVole","NA","TRUE","NA","tundraVole",TRUE,"sample","2018-03","HC.ditch","HC.ditch"
"HE.forest",NA,"HE",NA,"2018-07","forest","bankVole","NA","TRUE","NA","bankVole",TRUE,"sample","2018-07","HE.forest","HE.forest"
"HF.forest",NA,"HF",NA,"2018-08","forest","bankVole","NA","TRUE","NA","bankVole",TRUE,"sample","2018-08","HF.forest","HF.forest"
"HG.forest",NA,"HG",NA,"2018-09","forest","bankVole","NA","TRUE","NA","bankVole",TRUE,"sample","2018-09","HG.forest","HG.forest"
"HH.forest",NA,"HH",NA,"2018-10","forest","bankVole","NA","TRUE","NA","bankVole",TRUE,"sample","2018-10","HH.forest","HH.forest"
"HK.ditch",NA,"HK",NA,"2018-01","ditch","tundraVole","NA","TRUE","NA","tundraVole",TRUE,"sample","2018-01","HK.ditch","HK.ditch"
"HN.forest",NA,"HN",NA,"2018-12","forest","bankVole","NA","TRUE","NA","bankVole",TRUE,"sample","2018-12","HN.forest","HN.forest"
"HP.forest",NA,"HP",NA,"2019-04","forest","bankVole","NA","TRUE","NA","bankVole",TRUE,"sample","2019-04","HP.forest","HP.forest"
"HQ.forest",NA,"HQ",NA,"2019-08","forest","bankVole","NA","TRUE","NA","bankVole",TRUE,"sample","2019-08","HQ.forest","HQ.forest"
"HS.forest",NA,"HS",NA,"2018-01","forest","bankVole","NA","TRUE","NA","bankVole",TRUE,"sample","2018-01","HS.forest","HS.forest"
"KA.forest",NA,"KA",NA,"2017-08","forest","bankVole","NA","TRUE","NA","bankVole",TRUE,"sample","2017-08","KA.forest","KA.forest"
"KC.ditch",NA,"KC",NA,"2018-03","ditch","tundraVole","NA","TRUE","NA","tundraVole",TRUE,"sample","2018-03","KC.ditch","KC.ditch"
"KD.ditch",NA,"KD",NA,"2018-06","ditch","tundraVole","NA","TRUE","NA","tundraVole",TRUE,"sample","2018-06","KD.ditch","KD.ditch"
"KE.forest",NA,"KE",NA,"2018-07","forest","bankVole","NA","TRUE","NA","bankVole",TRUE,"sample","2018-07","KE.forest","KE.forest"
"KF.forest",NA,"KF",NA,"2018-08","forest","bankVole","NA","TRUE","NA","bankVole",TRUE,"sample","2018-08","KF.forest","KF.forest"
"KG.forest",NA,"KG",NA,"2018-09","forest","bankVole","NA","TRUE","NA","bankVole",TRUE,"sample","2018-09","KG.forest","KG.forest"
"KH.forest",NA,"KH",NA,"2018-10","forest","bankVole","NA","TRUE","NA","bankVole",TRUE,"sample","2018-10","KH.forest","KH.forest"
"KK.forest",NA,"KK",NA,"2018-01","forest","bankVole","NA","TRUE","NA","bankVole",TRUE,"sample","2018-01","KK.forest","KK.forest"
"KN.forest",NA,"KN",NA,"2018-12","forest","bankVole","NA","TRUE","NA","bankVole",TRUE,"sample","2018-12","KN.forest","KN.forest"
"KQ.forest",NA,"KQ",NA,"2019-08","forest","bankVole","NA","TRUE","NA","bankVole",TRUE,"sample","2019-08","KQ.forest","KQ.forest"
"KS.forest",NA,"KS",NA,"2018-01","forest","bankVole","NA","TRUE","NA","bankVole",TRUE,"sample","2018-01","KS.forest","KS.forest"
"MA.forest",NA,"MA",NA,"2017-08","forest","bankVole","NA","TRUE","NA","bankVole",TRUE,"sample","2017-08","MA.forest","MA.forest"
"MC.ditch",NA,"MC",NA,"2018-03","ditch","tundraVole","NA","TRUE","NA","tundraVole",TRUE,"sample","2018-03","MC.ditch","MC.ditch"
"MD.ditch",NA,"MD",NA,"2018-06","ditch","tundraVole","NA","TRUE","NA","tundraVole",TRUE,"sample","2018-06","MD.ditch","MD.ditch"
"ME.forest",NA,"ME",NA,"2018-07","forest","bankVole","NA","TRUE","NA","bankVole",TRUE,"sample","2018-07","ME.forest","ME.forest"
"MF.forest",NA,"MF",NA,"2018-08","forest","bankVole","NA","TRUE","NA","bankVole",TRUE,"sample","2018-08","MF.forest","MF.forest"
"MG.forest",NA,"MG",NA,"2018-09","forest","bankVole","NA","TRUE","NA","bankVole",TRUE,"sample","2018-09","MG.forest","MG.forest"
"MH.forest",NA,"MH",NA,"2018-10","forest","bankVole","NA","TRUE","NA","bankVole",TRUE,"sample","2018-10","MH.forest","MH.forest"
"MM.forest",NA,"MM",NA,"2018-12","forest","bankVole","NA","TRUE","NA","bankVole",TRUE,"sample","2018-12","MM.forest","MM.forest"
"MN.forest",NA,"MN",NA,"2018-12","forest","bankVole","NA","TRUE","NA","bankVole",TRUE,"sample","2018-12","MN.forest","MN.forest"
"MP.ditch",NA,"MP",NA,"2019-04","ditch","tundraVole","NA","TRUE","NA","tundraVole",TRUE,"sample","2019-04","MP.ditch","MP.ditch"
"MQ.forest",NA,"MQ",NA,"2019-08","forest","bankVole","NA","TRUE","NA","bankVole",TRUE,"sample","2019-08","MQ.forest","MQ.forest"
"MS.forest",NA,"MS",NA,"2018-01","forest","bankVole","NA","TRUE","NA","bankVole",TRUE,"sample","2018-01","MS.forest","MS.forest"
"NC.ditch",NA,"NC",NA,"2018-03","ditch","tundraVole","NA","TRUE","NA","tundraVole",TRUE,"sample","2018-03","NC.ditch","NC.ditch"
"ND.ditch",NA,"ND",NA,"2018-05","ditch","tundraVole","NA","TRUE","NA","tundraVole",TRUE,"sample","2018-05","ND.ditch","ND.ditch"
"NE.forest",NA,"NE",NA,"2018-07","forest","bankVole","NA","TRUE","NA","bankVole",TRUE,"sample","2018-07","NE.forest","NE.forest"
"NF.forest",NA,"NF",NA,"2018-08","forest","bankVole","NA","TRUE","NA","bankVole",TRUE,"sample","2018-08","NF.forest","NF.forest"
"NG.forest",NA,"NG",NA,"2018-09","forest","bankVole","NA","TRUE","NA","bankVole",TRUE,"sample","2018-09","NG.forest","NG.forest"
"NH.forest",NA,"NH",NA,"2018-10","forest","bankVole","NA","TRUE","NA","bankVole",TRUE,"sample","2018-10","NH.forest","NH.forest"
"NK.forest",NA,"NK",NA,"2018-10","forest","bankVole","NA","TRUE","NA","bankVole",TRUE,"sample","2018-10","NK.forest","NK.forest"
"NM.forest",NA,"NM",NA,"2018-11","forest","bankVole","NA","TRUE","NA","bankVole",TRUE,"sample","2018-11","NM.forest","NM.forest"
"NN.ditch",NA,"NN",NA,"2018-12","ditch","tundraVole","NA","TRUE","NA","tundraVole",TRUE,"sample","2018-12","NN.ditch","NN.ditch"
"NQ.forest",NA,"NQ",NA,"2019-08","forest","bankVole","NA","TRUE","NA","bankVole",TRUE,"sample","2019-08","NQ.forest","NQ.forest"
"NS.forest",NA,"NS",NA,"2018-01","forest","bankVole","NA","TRUE","NA","bankVole",TRUE,"sample","2018-01","NS.forest","NS.forest"
"PA.forest",NA,"PA",NA,"2017-08","forest","bankVole","NA","TRUE","NA","bankVole",TRUE,"sample","2017-08","PA.forest","PA.forest"
"PE.forest",NA,"PE",NA,"2018-07","forest","bankVole","NA","TRUE","NA","bankVole",TRUE,"sample","2018-07","PE.forest","PE.forest"
"PF.forest",NA,"PF",NA,"2018-08","forest","bankVole","NA","TRUE","NA","bankVole",TRUE,"sample","2018-08","PF.forest","PF.forest"
"PG.forest",NA,"PG",NA,"2018-09","forest","bankVole","NA","TRUE","NA","bankVole",TRUE,"sample","2018-09","PG.forest","PG.forest"
"PH.ditch",NA,"PH",NA,"2018-10","ditch","tundraVole","NA","TRUE","NA","tundraVole",TRUE,"sample","2018-10","PH.ditch","PH.ditch"
"PK.forest",NA,"PK",NA,"2018-10","forest","bankVole","NA","TRUE","NA","bankVole",TRUE,"sample","2018-10","PK.forest","PK.forest"
"PM.forest",NA,"PM",NA,"2018-11","forest","bankVole","NA","TRUE","NA","bankVole",TRUE,"sample","2018-11","PM.forest","PM.forest"
"PN.forest",NA,"PN",NA,"2019-01","forest","bankVole","NA","TRUE","NA","bankVole",TRUE,"sample","2019-01","PN.forest","PN.forest"
"PP.forest",NA,"PP",NA,"2019-06","forest","bankVole","NA","TRUE","NA","bankVole",TRUE,"sample","2019-06","PP.forest","PP.forest"
"PQ.ditch",NA,"PQ",NA,"2019-07","ditch","tundraVole","NA","TRUE","NA","tundraVole",TRUE,"sample","2019-07","PQ.ditch","PQ.ditch"
"PS.forest",NA,"PS",NA,"2018-01","forest","bankVole","NA","TRUE","NA","bankVole",TRUE,"sample","2018-01","PS.forest","PS.forest"
"QA.forest",NA,"QA",NA,"2017-08","forest","bankVole","NA","TRUE","NA","bankVole",TRUE,"sample","2017-08","QA.forest","QA.forest"
"QB.ditch",NA,"QB",NA,"2018-02","ditch","tundraVole","NA","TRUE","NA","tundraVole",TRUE,"sample","2018-02","QB.ditch","QB.ditch"
"QC.forest",NA,"QC",NA,"2018-05","forest","bankVole","NA","TRUE","NA","bankVole",TRUE,"sample","2018-05","QC.forest","QC.forest"
"QE.forest",NA,"QE",NA,"2018-07","forest","bankVole","NA","TRUE","NA","bankVole",TRUE,"sample","2018-07","QE.forest","QE.forest"
"QF.ditch",NA,"QF",NA,"2018-08","ditch","tundraVole","NA","TRUE","NA","tundraVole",TRUE,"sample","2018-08","QF.ditch","QF.ditch"
"QG.ditch",NA,"QG",NA,"2018-08","ditch","tundraVole","NA","TRUE","NA","tundraVole",TRUE,"sample","2018-08","QG.ditch","QG.ditch"
"QK.forest",NA,"QK",NA,"2018-10","forest","bankVole","NA","TRUE","NA","bankVole",TRUE,"sample","2018-10","QK.forest","QK.forest"
"QM.forest",NA,"QM",NA,"2018-11","forest","bankVole","NA","TRUE","NA","bankVole",TRUE,"sample","2018-11","QM.forest","QM.forest"
"QN.forest",NA,"QN",NA,"2019-01","forest","bankVole","NA","TRUE","NA","bankVole",TRUE,"sample","2019-01","QN.forest","QN.forest"
"QP.forest",NA,"QP",NA,"2019-06","forest","bankVole","NA","TRUE","NA","bankVole",TRUE,"sample","2019-06","QP.forest","QP.forest"
"RA.forest",NA,"RA",NA,"2017-09","forest","bankVole","NA","TRUE","NA","bankVole",TRUE,"sample","2017-09","RA.forest","RA.forest"
"RB.forest",NA,"RB",NA,"2018-02","forest","bankVole","NA","TRUE","NA","bankVole",TRUE,"sample","2018-02","RB.forest","RB.forest"
"RC.forest",NA,"RC",NA,"2018-05","forest","bankVole","NA","TRUE","NA","bankVole",TRUE,"sample","2018-05","RC.forest","RC.forest"
"RD.ditch",NA,"RD",NA,"2018-03","ditch","tundraVole","NA","TRUE","NA","tundraVole",TRUE,"sample","2018-03","RD.ditch","RD.ditch"
"RG.ditch",NA,"RG",NA,"2018-08","ditch","tundraVole","NA","TRUE","NA","tundraVole",TRUE,"sample","2018-08","RG.ditch","RG.ditch"
"RH.forest",NA,"RH",NA,"2018-01","forest","bankVole","NA","TRUE","NA","bankVole",TRUE,"sample","2018-01","RH.forest","RH.forest"
"RK.forest",NA,"RK",NA,"2018-10","forest","bankVole","NA","TRUE","NA","bankVole",TRUE,"sample","2018-10","RK.forest","RK.forest"
"RM.forest",NA,"RM",NA,"2018-11","forest","bankVole","NA","TRUE","NA","bankVole",TRUE,"sample","2018-11","RM.forest","RM.forest"
"RN.forest",NA,"RN",NA,"2019-01","forest","bankVole","NA","TRUE","NA","bankVole",TRUE,"sample","2019-01","RN.forest","RN.forest"
"RP.forest",NA,"RP",NA,"2019-06","forest","bankVole","NA","TRUE","NA","bankVole",TRUE,"sample","2019-06","RP.forest","RP.forest"
"SA.forest",NA,"SA",NA,"2017-09","forest","bankVole","NA","TRUE","NA","bankVole",TRUE,"sample","2017-09","SA.forest","SA.forest"
"SB.forest",NA,"SB",NA,"2018-02","forest","bankVole","NA","TRUE","NA","bankVole",TRUE,"sample","2018-02","SB.forest","SB.forest"
"SC.forest",NA,"SC",NA,"2018-05","forest","bankVole","NA","TRUE","NA","bankVole",TRUE,"sample","2018-05","SC.forest","SC.forest"
"SD.ditch",NA,"SD",NA,"2018-03","ditch","tundraVole","NA","TRUE","NA","tundraVole",TRUE,"sample","2018-03","SD.ditch","SD.ditch"
"SF.ditch",NA,"SF",NA,"2018-07","ditch","tundraVole","NA","TRUE","NA","tundraVole",TRUE,"sample","2018-07","SF.ditch","SF.ditch"
"SG.ditch",NA,"SG",NA,"2018-08","ditch","tundraVole","NA","TRUE","NA","tundraVole",TRUE,"sample","2018-08","SG.ditch","SG.ditch"
"SH.forest",NA,"SH",NA,"2018-01","forest","bankVole","NA","TRUE","NA","bankVole",TRUE,"sample","2018-01","SH.forest","SH.forest"
"SK.forest",NA,"SK",NA,"2018-10","forest","bankVole","NA","TRUE","NA","bankVole",TRUE,"sample","2018-10","SK.forest","SK.forest"
"SM.forest",NA,"SM",NA,"2018-11","forest","bankVole","NA","TRUE","NA","bankVole",TRUE,"sample","2018-11","SM.forest","SM.forest"
"SN.forest",NA,"SN",NA,"2019-01","forest","bankVole","NA","TRUE","NA","bankVole",TRUE,"sample","2019-01","SN.forest","SN.forest"
"SP.forest",NA,"SP",NA,"2019-05","forest","bankVole","NA","TRUE","NA","bankVole",TRUE,"sample","2019-05","SP.forest","SP.forest"
"TA.forest",NA,"TA",NA,"2017-09","forest","bankVole","NA","TRUE","NA","bankVole",TRUE,"sample","2017-09","TA.forest","TA.forest"
"TB.forest",NA,"TB",NA,"2018-02","forest","bankVole","NA","TRUE","NA","bankVole",TRUE,"sample","2018-02","TB.forest","TB.forest"
"TC.forest",NA,"TC",NA,"2018-05","forest","bankVole","NA","TRUE","NA","bankVole",TRUE,"sample","2018-05","TC.forest","TC.forest"
"TE.ditch",NA,"TE",NA,"2018-06","ditch","tundraVole","NA","TRUE","NA","tundraVole",TRUE,"sample","2018-06","TE.ditch","TE.ditch"
"TG.ditch",NA,"TG",NA,"2018-08","ditch","tundraVole","NA","TRUE","NA","tundraVole",TRUE,"sample","2018-08","TG.ditch","TG.ditch"
"TH.forest",NA,"TH",NA,"2018-01","forest","bankVole","NA","TRUE","NA","bankVole",TRUE,"sample","2018-01","TH.forest","TH.forest"
"TK.forest",NA,"TK",NA,"2018-10","forest","bankVole","NA","TRUE","NA","bankVole",TRUE,"sample","2018-10","TK.forest","TK.forest"
"TN.forest",NA,"TN",NA,"2019-01","forest","bankVole","NA","TRUE","NA","bankVole",TRUE,"sample","2019-01","TN.forest","TN.forest"
"TP.forest",NA,"TP",NA,"2019-05","forest","bankVole","NA","TRUE","NA","bankVole",TRUE,"sample","2019-05","TP.forest","TP.forest"
"WA.forest",NA,"WA",NA,"2017-09","forest","bankVole","NA","TRUE","NA","bankVole",TRUE,"sample","2017-09","WA.forest","WA.forest"
"WB.forest",NA,"WB",NA,"2018-02","forest","bankVole","NA","TRUE","NA","bankVole",TRUE,"sample","2018-02","WB.forest","WB.forest"
"WC.forest",NA,"WC",NA,"2018-05","forest","bankVole","NA","TRUE","NA","bankVole",TRUE,"sample","2018-05","WC.forest","WC.forest"
"WD.ditch",NA,"WD",NA,"2018-03","ditch","tundraVole","NA","TRUE","NA","tundraVole",TRUE,"sample","2018-03","WD.ditch","WD.ditch"
"WF.ditch",NA,"WF",NA,"2018-07","ditch","tundraVole","NA","TRUE","NA","tundraVole",TRUE,"sample","2018-07","WF.ditch","WF.ditch"
"WG.ditch",NA,"WG",NA,"2018-08","ditch","tundraVole","NA","TRUE","NA","tundraVole",TRUE,"sample","2018-08","WG.ditch","WG.ditch"
"WH.forest",NA,"WH",NA,"2018-01","forest","bankVole","NA","TRUE","NA","bankVole",TRUE,"sample","2018-01","WH.forest","WH.forest"
"WK.ditch",NA,"WK",NA,"2018-01","ditch","tundraVole","NA","TRUE","NA","tundraVole",TRUE,"sample","2018-01","WK.ditch","WK.ditch"
"WN.forest",NA,"WN",NA,"2019-01","forest","bankVole","NA","TRUE","NA","bankVole",TRUE,"sample","2019-01","WN.forest","WN.forest"
"XA.forest",NA,"XA",NA,"2017-09","forest","bankVole","NA","TRUE","NA","bankVole",TRUE,"sample","2017-09","XA.forest","XA.forest"
"XB.forest",NA,"XB",NA,"2018-02","forest","bankVole","NA","TRUE","NA","bankVole",TRUE,"sample","2018-02","XB.forest","XB.forest"
"XC.forest",NA,"XC",NA,"2018-05","forest","bankVole","NA","TRUE","NA","bankVole",TRUE,"sample","2018-05","XC.forest","XC.forest"
"XD.ditch",NA,"XD",NA,"2018-05","ditch","tundraVole","NA","TRUE","NA","tundraVole",TRUE,"sample","2018-05","XD.ditch","XD.ditch"
"XE.ditch",NA,"XE",NA,"2018-06","ditch","tundraVole","NA","TRUE","NA","tundraVole",TRUE,"sample","2018-06","XE.ditch","XE.ditch"
"XF.ditch",NA,"XF",NA,"2018-07","ditch","tundraVole","NA","TRUE","NA","tundraVole",TRUE,"sample","2018-07","XF.ditch","XF.ditch"
"XG.ditch",NA,"XG",NA,"2018-08","ditch","tundraVole","NA","TRUE","NA","tundraVole",TRUE,"sample","2018-08","XG.ditch","XG.ditch"
"XH.forest",NA,"XH",NA,"2018-01","forest","bankVole","NA","TRUE","NA","bankVole",TRUE,"sample","2018-01","XH.forest","XH.forest"
"XN.forest",NA,"XN",NA,"2019-03","forest","bankVole","NA","TRUE","NA","bankVole",TRUE,"sample","2019-03","XN.forest","XN.forest"
"XP.forest",NA,"XP",NA,"2019-07","forest","bankVole","NA","TRUE","NA","bankVole",TRUE,"sample","2019-07","XP.forest","XP.forest"
"ZA.forest",NA,"ZA",NA,"2017-09","forest","bankVole","NA","TRUE","NA","bankVole",TRUE,"sample","2017-09","ZA.forest","ZA.forest"
"ZB.forest",NA,"ZB",NA,"2018-02","forest","bankVole","NA","TRUE","NA","bankVole",TRUE,"sample","2018-02","ZB.forest","ZB.forest"
"ZC.ditch",NA,"ZC",NA,"2018-05","ditch","tundraVole","NA","TRUE","NA","tundraVole",TRUE,"sample","2018-05","ZC.ditch","ZC.ditch"
"ZD.ditch",NA,"ZD",NA,"2018-05","ditch","tundraVole","NA","TRUE","NA","tundraVole",TRUE,"sample","2018-05","ZD.ditch","ZD.ditch"
"ZE.ditch",NA,"ZE",NA,"2018-06","ditch","tundraVole","NA","TRUE","NA","tundraVole",TRUE,"sample","2018-06","ZE.ditch","ZE.ditch"
"ZF.ditch",NA,"ZF",NA,"2018-07","ditch","tundraVole","NA","TRUE","NA","tundraVole",TRUE,"sample","2018-07","ZF.ditch","ZF.ditch"
"ZG.ditch",NA,"ZG",NA,"2018-08","ditch","tundraVole","NA","TRUE","NA","tundraVole",TRUE,"sample","2018-08","ZG.ditch","ZG.ditch"
"ZH.forest",NA,"ZH",NA,"2018-01","forest","bankVole","NA","TRUE","NA","bankVole",TRUE,"sample","2018-01","ZH.forest","ZH.forest"
"ZK.ditch",NA,"ZK",NA,"2018-01","ditch","tundraVole","NA","TRUE","NA","tundraVole",TRUE,"sample","2018-01","ZK.ditch","ZK.ditch"
"ZM.forest",NA,"ZM",NA,"2019-01","forest","bankVole","NA","TRUE","NA","bankVole",TRUE,"sample","2019-01","ZM.forest","ZM.forest"
"ZP.forest",NA,"ZP",NA,"2019-07","forest","bankVole","NA","TRUE","NA","bankVole",TRUE,"sample","2019-07","ZP.forest","ZP.forest"
"ZZ.forest",NA,"ZZ",NA,NA,"forest","bankVole","NA","TRUE","NA","bankVole",TRUE,"sample","2017-08","ZZ.forest","ZZ.forest"
